@relation datatrain

@attribute JENIS_KELAMIN {L,P}
@attribute TOTAL_PINJAMAN {RENDAH,SANGAT_RENDAH,TINGGI,SEDANG,SANGAT_TINGGI}
@attribute JUMLAH_TANGGUNGAN {SEDANG,SEDIKIT,BANYAK}
@attribute STATUS_PERNIKAHAN {MENIKAH,BELUM_MENIKAH,CERAI}
@attribute PENDAPATAN_UTAMA {SEDANG,RENDAH,TINGGI}
@attribute TOTAL_BIAYA_HIDUP {RENDAH,SEDANG}
@attribute 'STATUS_PINJAMAN ' {MACET,LANCAR}

@data

L,RENDAH,SEDANG,MENIKAH,SEDANG,RENDAH,MACET
P,SANGAT_RENDAH,SEDANG,MENIKAH,SEDANG,RENDAH,LANCAR
L,RENDAH,SEDIKIT,BELUM_MENIKAH,SEDANG,SEDANG,LANCAR
P,SANGAT_RENDAH,SEDIKIT,MENIKAH,RENDAH,RENDAH,MACET
L,TINGGI,SEDANG,MENIKAH,SEDANG,RENDAH,MACET
L,SANGAT_RENDAH,SEDANG,MENIKAH,SEDANG,RENDAH,LANCAR
L,SEDANG,SEDANG,MENIKAH,RENDAH,RENDAH,MACET
P,TINGGI,SEDIKIT,MENIKAH,SEDANG,RENDAH,MACET
L,RENDAH,SEDIKIT,MENIKAH,RENDAH,RENDAH,LANCAR
P,RENDAH,BANYAK,MENIKAH,SEDANG,RENDAH,MACET
L,RENDAH,SEDIKIT,MENIKAH,SEDANG,SEDANG,MACET
P,SEDANG,SEDIKIT,MENIKAH,SEDANG,RENDAH,MACET
L,TINGGI,SEDIKIT,MENIKAH,SEDANG,RENDAH,MACET
L,SANGAT_RENDAH,SEDANG,MENIKAH,SEDANG,RENDAH,LANCAR
L,SEDANG,SEDANG,MENIKAH,SEDANG,RENDAH,LANCAR
L,SANGAT_TINGGI,SEDIKIT,BELUM_MENIKAH,SEDANG,RENDAH,LANCAR
P,RENDAH,BANYAK,MENIKAH,RENDAH,RENDAH,MACET
L,RENDAH,SEDIKIT,MENIKAH,SEDANG,RENDAH,LANCAR
L,SANGAT_RENDAH,SEDANG,MENIKAH,SEDANG,RENDAH,LANCAR
L,SANGAT_RENDAH,BANYAK,MENIKAH,SEDANG,SEDANG,MACET
L,SANGAT_RENDAH,SEDIKIT,MENIKAH,SEDANG,SEDANG,MACET
L,TINGGI,SEDIKIT,MENIKAH,SEDANG,RENDAH,MACET
P,RENDAH,SEDIKIT,CERAI,SEDANG,SEDANG,LANCAR
P,RENDAH,SEDIKIT,MENIKAH,SEDANG,RENDAH,LANCAR
P,SEDANG,SEDANG,MENIKAH,SEDANG,SEDANG,MACET
L,RENDAH,SEDANG,MENIKAH,SEDANG,SEDANG,LANCAR
L,SANGAT_RENDAH,SEDIKIT,CERAI,SEDANG,SEDANG,LANCAR
P,RENDAH,SEDANG,MENIKAH,SEDANG,SEDANG,MACET
L,SEDANG,SEDANG,MENIKAH,SEDANG,RENDAH,MACET
L,SANGAT_RENDAH,SEDANG,MENIKAH,SEDANG,RENDAH,LANCAR
L,SANGAT_RENDAH,SEDIKIT,MENIKAH,SEDANG,RENDAH,LANCAR
L,SANGAT_RENDAH,SEDANG,MENIKAH,SEDANG,SEDANG,MACET
L,SANGAT_RENDAH,SEDIKIT,CERAI,SEDANG,RENDAH,LANCAR
P,TINGGI,BANYAK,MENIKAH,SEDANG,RENDAH,MACET
L,RENDAH,SEDANG,MENIKAH,SEDANG,RENDAH,MACET
L,SANGAT_RENDAH,SEDANG,MENIKAH,SEDANG,RENDAH,LANCAR
P,RENDAH,SEDIKIT,MENIKAH,SEDANG,RENDAH,LANCAR
L,SANGAT_TINGGI,SEDIKIT,BELUM_MENIKAH,SEDANG,RENDAH,LANCAR
P,SEDANG,SEDIKIT,MENIKAH,SEDANG,RENDAH,MACET
L,SANGAT_RENDAH,SEDIKIT,MENIKAH,SEDANG,RENDAH,LANCAR
P,SEDANG,SEDIKIT,BELUM_MENIKAH,SEDANG,SEDANG,LANCAR
L,TINGGI,SEDIKIT,BELUM_MENIKAH,SEDANG,RENDAH,LANCAR
P,TINGGI,SEDIKIT,MENIKAH,SEDANG,RENDAH,MACET
P,SANGAT_RENDAH,SEDIKIT,MENIKAH,SEDANG,RENDAH,LANCAR
L,SANGAT_RENDAH,SEDIKIT,MENIKAH,SEDANG,RENDAH,LANCAR
L,SANGAT_TINGGI,SEDIKIT,MENIKAH,SEDANG,SEDANG,MACET
P,RENDAH,SEDIKIT,MENIKAH,SEDANG,RENDAH,LANCAR
P,RENDAH,SEDIKIT,MENIKAH,SEDANG,RENDAH,LANCAR
L,SANGAT_RENDAH,SEDANG,MENIKAH,SEDANG,RENDAH,LANCAR
L,SEDANG,SEDIKIT,MENIKAH,TINGGI,SEDANG,LANCAR
P,SEDANG,SEDANG,MENIKAH,SEDANG,RENDAH,MACET
P,SEDANG,SEDIKIT,MENIKAH,SEDANG,SEDANG,LANCAR
L,SEDANG,SEDIKIT,MENIKAH,SEDANG,SEDANG,LANCAR
P,SANGAT_TINGGI,SEDANG,MENIKAH,SEDANG,RENDAH,MACET
L,SANGAT_RENDAH,SEDANG,MENIKAH,SEDANG,SEDANG,MACET
L,SANGAT_RENDAH,SEDANG,MENIKAH,SEDANG,RENDAH,LANCAR
L,RENDAH,SEDANG,MENIKAH,SEDANG,SEDANG,MACET
P,RENDAH,SEDIKIT,MENIKAH,SEDANG,SEDANG,MACET
P,RENDAH,SEDIKIT,MENIKAH,SEDANG,RENDAH,LANCAR
P,RENDAH,SEDIKIT,MENIKAH,SEDANG,SEDANG,MACET
L,RENDAH,SEDANG,MENIKAH,SEDANG,RENDAH,MACET
P,SANGAT_RENDAH,SEDIKIT,MENIKAH,RENDAH,RENDAH,MACET
L,SANGAT_TINGGI,SEDANG,MENIKAH,TINGGI,SEDANG,MACET
P,RENDAH,SEDANG,MENIKAH,SEDANG,RENDAH,MACET
P,RENDAH,SEDIKIT,MENIKAH,SEDANG,RENDAH,LANCAR
L,SANGAT_RENDAH,SEDANG,MENIKAH,SEDANG,RENDAH,LANCAR
P,RENDAH,SEDIKIT,MENIKAH,SEDANG,RENDAH,LANCAR
L,SANGAT_RENDAH,SEDIKIT,MENIKAH,SEDANG,RENDAH,LANCAR
L,RENDAH,SEDANG,CERAI,SEDANG,SEDANG,MACET
L,SANGAT_RENDAH,SEDANG,MENIKAH,TINGGI,SEDANG,LANCAR
P,RENDAH,SEDIKIT,MENIKAH,SEDANG,RENDAH,LANCAR
P,RENDAH,SEDANG,MENIKAH,SEDANG,RENDAH,MACET
P,TINGGI,SEDANG,MENIKAH,SEDANG,RENDAH,MACET
L,SEDANG,SEDANG,MENIKAH,SEDANG,RENDAH,MACET
L,RENDAH,SEDIKIT,MENIKAH,SEDANG,SEDANG,MACET
L,RENDAH,SEDIKIT,BELUM_MENIKAH,SEDANG,RENDAH,LANCAR
P,SANGAT_RENDAH,SEDIKIT,MENIKAH,SEDANG,RENDAH,LANCAR
L,SANGAT_TINGGI,SEDANG,MENIKAH,TINGGI,SEDANG,MACET
L,SANGAT_RENDAH,SEDIKIT,MENIKAH,SEDANG,RENDAH,LANCAR
L,SANGAT_TINGGI,SEDIKIT,CERAI,TINGGI,SEDANG,LANCAR
L,TINGGI,SEDANG,MENIKAH,SEDANG,RENDAH,MACET
P,RENDAH,SEDIKIT,MENIKAH,SEDANG,RENDAH,LANCAR
L,SANGAT_RENDAH,SEDANG,MENIKAH,SEDANG,RENDAH,LANCAR
L,RENDAH,SEDIKIT,BELUM_MENIKAH,SEDANG,RENDAH,LANCAR
P,RENDAH,SEDIKIT,MENIKAH,SEDANG,RENDAH,LANCAR
L,SEDANG,SEDIKIT,BELUM_MENIKAH,SEDANG,RENDAH,LANCAR
L,SANGAT_TINGGI,SEDIKIT,MENIKAH,SEDANG,RENDAH,LANCAR
L,RENDAH,SEDANG,MENIKAH,SEDANG,SEDANG,MACET
L,SANGAT_RENDAH,SEDANG,MENIKAH,SEDANG,RENDAH,LANCAR
L,RENDAH,SEDIKIT,BELUM_MENIKAH,SEDANG,RENDAH,LANCAR
P,RENDAH,SEDANG,CERAI,SEDANG,RENDAH,LANCAR
P,SANGAT_RENDAH,SEDIKIT,MENIKAH,SEDANG,RENDAH,LANCAR
P,RENDAH,SEDANG,MENIKAH,SEDANG,RENDAH,MACET
L,TINGGI,SEDANG,MENIKAH,SEDANG,RENDAH,MACET
P,SEDANG,SEDANG,MENIKAH,SEDANG,SEDANG,MACET
L,SEDANG,BANYAK,MENIKAH,SEDANG,RENDAH,MACET
L,RENDAH,SEDIKIT,BELUM_MENIKAH,SEDANG,RENDAH,LANCAR
L,RENDAH,SEDIKIT,BELUM_MENIKAH,SEDANG,RENDAH,LANCAR
L,RENDAH,SEDANG,MENIKAH,SEDANG,RENDAH,MACET
P,SANGAT_RENDAH,SEDANG,MENIKAH,SEDANG,RENDAH,LANCAR
P,SANGAT_RENDAH,SEDANG,MENIKAH,SEDANG,RENDAH,LANCAR
L,RENDAH,SEDIKIT,BELUM_MENIKAH,SEDANG,RENDAH,LANCAR
L,RENDAH,SEDANG,MENIKAH,SEDANG,RENDAH,MACET
L,RENDAH,SEDANG,MENIKAH,SEDANG,RENDAH,MACET
L,SANGAT_RENDAH,SEDIKIT,MENIKAH,SEDANG,RENDAH,LANCAR
L,SEDANG,SEDANG,MENIKAH,TINGGI,SEDANG,MACET
P,SANGAT_RENDAH,SEDIKIT,MENIKAH,RENDAH,RENDAH,MACET
P,RENDAH,SEDANG,MENIKAH,SEDANG,RENDAH,MACET
L,RENDAH,SEDANG,MENIKAH,SEDANG,RENDAH,MACET
L,TINGGI,SEDANG,MENIKAH,SEDANG,SEDANG,MACET
L,RENDAH,SEDANG,MENIKAH,SEDANG,RENDAH,MACET
L,RENDAH,SEDIKIT,BELUM_MENIKAH,SEDANG,RENDAH,LANCAR
L,TINGGI,SEDIKIT,BELUM_MENIKAH,SEDANG,RENDAH,LANCAR
L,RENDAH,SEDANG,MENIKAH,SEDANG,RENDAH,MACET
L,SEDANG,SEDANG,MENIKAH,SEDANG,RENDAH,MACET
P,SEDANG,SEDIKIT,MENIKAH,SEDANG,SEDANG,LANCAR
P,SEDANG,SEDIKIT,MENIKAH,SEDANG,RENDAH,LANCAR
L,SANGAT_RENDAH,SEDIKIT,MENIKAH,SEDANG,RENDAH,LANCAR
L,SANGAT_RENDAH,SEDIKIT,MENIKAH,SEDANG,RENDAH,LANCAR
L,RENDAH,SEDANG,MENIKAH,SEDANG,RENDAH,MACET
L,SANGAT_RENDAH,SEDANG,MENIKAH,SEDANG,SEDANG,MACET
L,SANGAT_TINGGI,SEDANG,MENIKAH,SEDANG,SEDANG,MACET
P,SANGAT_RENDAH,SEDANG,MENIKAH,SEDANG,RENDAH,LANCAR
P,SANGAT_RENDAH,SEDIKIT,MENIKAH,SEDANG,RENDAH,LANCAR
L,SANGAT_RENDAH,SEDANG,MENIKAH,SEDANG,RENDAH,LANCAR
P,SEDANG,SEDIKIT,MENIKAH,SEDANG,SEDANG,LANCAR
L,RENDAH,SEDIKIT,MENIKAH,SEDANG,RENDAH,LANCAR
P,RENDAH,SEDIKIT,MENIKAH,SEDANG,SEDANG,MACET
L,RENDAH,SEDIKIT,BELUM_MENIKAH,SEDANG,RENDAH,LANCAR
P,SEDANG,SEDIKIT,MENIKAH,SEDANG,RENDAH,LANCAR
L,SEDANG,SEDANG,MENIKAH,SEDANG,RENDAH,LANCAR
L,SANGAT_RENDAH,SEDIKIT,MENIKAH,SEDANG,RENDAH,LANCAR
L,SANGAT_TINGGI,SEDANG,MENIKAH,SEDANG,RENDAH,MACET
P,RENDAH,SEDIKIT,MENIKAH,SEDANG,RENDAH,LANCAR
L,RENDAH,SEDIKIT,BELUM_MENIKAH,SEDANG,RENDAH,LANCAR
L,SANGAT_RENDAH,SEDANG,MENIKAH,SEDANG,RENDAH,LANCAR
L,RENDAH,SEDIKIT,MENIKAH,SEDANG,RENDAH,LANCAR
P,SEDANG,SEDANG,MENIKAH,SEDANG,RENDAH,LANCAR
L,RENDAH,SEDIKIT,MENIKAH,SEDANG,RENDAH,LANCAR
P,RENDAH,SEDANG,MENIKAH,SEDANG,SEDANG,MACET
P,SANGAT_RENDAH,SEDANG,MENIKAH,SEDANG,SEDANG,MACET
L,SANGAT_TINGGI,SEDANG,MENIKAH,SEDANG,SEDANG,MACET
P,SANGAT_RENDAH,SEDANG,CERAI,SEDANG,RENDAH,LANCAR
L,RENDAH,BANYAK,MENIKAH,SEDANG,SEDANG,MACET
P,RENDAH,SEDIKIT,MENIKAH,SEDANG,RENDAH,LANCAR
L,SANGAT_RENDAH,SEDIKIT,MENIKAH,SEDANG,RENDAH,LANCAR
L,TINGGI,SEDIKIT,MENIKAH,SEDANG,RENDAH,LANCAR
P,SANGAT_RENDAH,SEDIKIT,BELUM_MENIKAH,SEDANG,RENDAH,LANCAR
P,RENDAH,SEDIKIT,MENIKAH,SEDANG,RENDAH,LANCAR
L,RENDAH,SEDIKIT,MENIKAH,SEDANG,RENDAH,LANCAR
L,SANGAT_RENDAH,SEDANG,MENIKAH,SEDANG,RENDAH,LANCAR
L,SANGAT_RENDAH,SEDANG,MENIKAH,SEDANG,RENDAH,LANCAR
P,RENDAH,SEDIKIT,BELUM_MENIKAH,SEDANG,RENDAH,LANCAR
P,RENDAH,SEDIKIT,MENIKAH,SEDANG,RENDAH,LANCAR
P,SANGAT_RENDAH,SEDIKIT,CERAI,SEDANG,RENDAH,LANCAR
L,SEDANG,SEDIKIT,MENIKAH,SEDANG,SEDANG,MACET
L,SANGAT_TINGGI,SEDANG,MENIKAH,SEDANG,RENDAH,MACET
P,RENDAH,SEDIKIT,MENIKAH,SEDANG,RENDAH,LANCAR
L,SANGAT_RENDAH,SEDIKIT,CERAI,SEDANG,RENDAH,LANCAR
L,RENDAH,SEDIKIT,BELUM_MENIKAH,SEDANG,RENDAH,LANCAR
P,RENDAH,SEDIKIT,MENIKAH,SEDANG,RENDAH,LANCAR
